# Blender v2.79 (sub 0) OBJ File: 'terrain.blend'
# www.blender.org
mtllib terrain.mtl
o Terrain_Plane
v -4.922012 0.000000 4.922012
v 4.922012 0.000000 4.922012
v -4.922012 2.005336 -4.922012
v 4.922012 0.000000 -4.922012
v -4.922012 -0.030777 0.000000
v 0.000000 0.000000 4.922012
v 4.922012 0.000000 0.000000
v 0.000000 0.045114 -4.922012
v 0.000000 0.000000 0.000000
v -4.922012 0.000000 2.461006
v 2.461006 0.711547 4.922012
v 4.922012 0.000000 -2.461006
v -2.461006 2.005336 -4.922012
v -4.922012 1.287271 -2.461006
v -2.461006 0.000000 4.922012
v 4.922012 0.353764 2.461006
v 2.531752 0.251005 -5.009469
v 0.000000 0.000000 -2.461006
v 0.000000 0.026938 2.461006
v -2.461006 -0.060414 0.000000
v 2.461006 0.043462 0.000000
v 2.461006 0.368510 2.461006
v -2.461006 0.085570 2.461006
v -2.461006 0.608852 -2.461006
v 2.496179 0.077856 -2.504488
v -4.922012 0.000000 3.691509
v 3.691509 0.728277 4.922012
v 4.922012 0.000000 -3.691509
v -3.691509 2.005336 -4.922012
v -4.922012 0.322398 -1.230503
v -1.230503 0.000000 4.922012
v 4.922012 0.000000 1.230503
v 1.265676 0.077856 -4.965494
v 0.000000 0.000409 -3.691509
v 0.000000 0.000000 1.230503
v -3.691509 -0.017701 0.000000
v 1.230503 0.000000 0.000000
v -4.922012 -0.026176 1.230503
v 1.230503 0.711547 4.922012
v 4.922012 0.004096 -1.230503
v -1.230503 0.681063 -4.922012
v -4.922012 2.005336 -3.691509
v -3.691509 0.000000 4.922012
v 4.922012 0.353764 3.691509
v 3.691509 0.000000 -4.922012
v 0.000000 -0.163016 -1.230503
v 0.000000 0.023839 3.691509
v -1.230503 0.000000 0.000000
v 3.691509 0.048393 0.000000
v 2.461006 0.015072 1.230503
v 2.461006 1.565887 3.691509
v 1.230503 0.000000 2.461006
v 3.691509 1.278563 2.461006
v -2.461006 -0.063276 1.230503
v -2.461006 0.000000 3.691509
v -3.691509 0.085570 2.461006
v -1.230503 0.138380 2.461006
v -2.461006 1.287271 -3.691509
v -2.461006 0.026807 -1.230503
v -3.691509 0.681063 -2.461006
v -1.230503 0.130526 -2.461006
v 2.531752 0.184843 -3.778966
v 2.461006 0.140359 -1.230503
v 1.265676 0.077856 -2.504488
v 3.691509 0.167097 -2.461006
v 3.691509 0.335477 -1.230503
v 1.230503 0.000000 -1.230503
v 1.265676 0.077856 -3.734991
v -1.230503 0.000000 -1.230503
v -3.691509 0.130526 -1.230503
v -3.691509 2.005336 -3.691509
v -1.230503 0.085570 3.691509
v -3.691509 0.000000 3.691509
v -3.691509 -0.000664 1.230503
v 3.691509 1.388512 3.691509
v 1.230503 0.020766 3.691509
v 1.230503 0.000000 1.230503
v 3.691509 0.055837 1.230503
v -1.230503 0.096830 1.230503
v -1.230503 0.385868 -3.691509
v 3.691509 0.000000 -3.691509
v -4.922012 0.000000 4.306761
v 4.306761 0.353764 4.922012
v 4.922012 0.000000 -4.306761
v -4.306761 2.005336 -4.922012
v -4.922012 0.045114 -0.615252
v -0.615252 0.000000 4.922012
v 4.922012 0.000000 0.615252
v 0.615252 0.000000 -4.922012
v 0.000000 0.026807 -4.306761
v 0.000000 0.000000 0.615252
v -4.306761 -0.059711 0.000000
v 0.615252 0.000000 0.000000
v -4.922012 0.000000 1.845755
v 1.845755 1.278563 4.922012
v 4.922012 0.004096 -1.845755
v -1.845755 1.287271 -4.922012
v -4.922012 2.005336 -3.076258
v -3.076258 0.000000 4.922012
v 4.922012 0.711547 3.076258
v 3.111431 0.124031 -4.965494
v 0.000000 -0.013295 -1.845755
v 0.000000 0.213273 3.076258
v -1.845755 -0.012778 0.000000
v 3.076258 0.200420 0.000000
v 2.461006 0.038728 0.615252
v 2.461006 0.998871 3.076258
v 0.615252 0.034498 2.461006
v 3.076258 0.727741 2.461006
v -2.461006 -0.163016 0.615252
v -2.461006 0.023457 3.076258
v -4.306761 0.000000 2.461006
v -1.845755 0.036605 2.461006
v -2.461006 1.287271 -4.306761
v -2.461006 0.265411 -1.845755
v -4.306761 0.878160 -2.461006
v -1.845755 0.385868 -2.461006
v 2.588127 0.477709 -4.463910
v 2.461006 0.069783 -1.845755
v 0.615252 0.000000 -2.461006
v 3.076258 0.093269 -2.461006
v -4.922012 0.000000 3.076258
v 3.076258 0.717377 4.922012
v 4.922012 0.000000 -3.076258
v -3.076258 2.005336 -4.922012
v -4.922012 0.681063 -1.845755
v -1.845755 0.000000 4.922012
v 4.922012 0.000000 1.845755
v 1.916500 0.182994 -5.009469
v 0.000000 0.000000 -3.076258
v 0.000000 0.000000 1.845755
v -3.076258 -0.033902 0.000000
v 1.845755 0.000000 0.000000
v -4.922012 -0.014951 0.615252
v 0.615252 0.020766 4.922012
v 4.922012 0.000000 -0.615252
v -0.615252 0.322398 -4.922012
v -4.922012 2.005336 -4.306761
v -4.306761 0.000000 4.922012
v 4.922012 0.020766 4.306761
v 4.306761 0.000000 -4.922012
v 0.000000 -0.027409 -0.615252
v 0.000000 0.000000 4.306761
v -0.615252 0.000000 0.000000
v 4.306761 0.000000 0.000000
v 2.461006 0.065449 1.845755
v 2.461006 1.401618 4.306761
v 1.845755 0.000000 2.461006
v 4.306761 0.711547 2.461006
v -2.461006 0.023457 1.845755
v -2.461006 0.000000 4.306761
v -3.076258 0.207977 2.461006
v -0.615252 0.028250 2.461006
v -2.461006 0.878160 -3.076258
v -2.461006 0.000000 -0.615252
v -3.076258 0.681063 -2.461006
v -0.615252 0.000409 -2.461006
v 2.531752 0.156597 -3.163714
v 2.461006 0.108688 -0.615252
v 1.916500 0.156597 -2.548463
v 4.306761 0.100494 -2.461006
v 3.691509 0.448531 -1.845755
v 3.691509 0.163339 -0.615252
v 3.076258 0.289188 -1.230503
v 4.306761 0.178558 -1.230503
v 1.230503 0.000000 -1.845755
v 1.230503 0.000000 -0.615252
v 0.615252 -0.049059 -1.230503
v 1.845755 0.004096 -1.230503
v 1.301249 0.156597 -4.394217
v 1.301249 0.156597 -3.163714
v 0.615252 0.000000 -3.691509
v 1.916500 0.160468 -3.778966
v -1.230503 0.013338 -1.845755
v -1.230503 0.000000 -0.615252
v -1.845755 0.000409 -1.230503
v -0.615252 -0.021082 -1.230503
v -3.691509 0.385868 -1.845755
v -3.691509 0.000409 -0.615252
v -4.306761 0.265411 -1.230503
v -3.076258 0.045114 -1.230503
v -3.691509 2.005336 -4.306761
v -3.691509 1.287271 -3.076258
v -4.306761 2.005336 -3.691509
v -3.076258 2.005336 -3.691509
v -1.230503 0.207977 3.076258
v -1.230503 0.000000 4.306761
v -1.845755 0.023457 3.691509
v -0.615252 0.037576 3.691509
v -3.691509 0.023457 3.076258
v -3.691509 0.000000 4.306761
v -4.306761 0.000000 3.691509
v -3.076258 0.000000 3.691509
v -3.691509 -0.049981 0.615252
v -3.691509 0.023457 1.845755
v -4.306761 -0.005660 1.230503
v -3.076258 -0.001670 1.230503
v 3.691509 1.278563 3.076258
v 3.691509 1.565887 4.306761
v 3.076258 1.279392 3.691509
v 4.306761 0.716772 3.691509
v 1.230503 0.000000 3.076258
v 1.230503 0.353764 4.306761
v 0.615252 0.010054 3.691509
v 1.845755 0.761697 3.691509
v 1.230503 0.000000 0.615252
v 1.230503 0.000000 1.845755
v 0.615252 0.000000 1.230503
v 1.845755 0.000000 1.230503
v 3.691509 0.040615 0.615252
v 3.691509 0.810124 1.845755
v 3.076258 0.025037 1.230503
v 4.306761 0.000000 1.230503
v -1.230503 0.000000 0.615252
v -1.230503 0.421250 1.845755
v -1.845755 0.022647 1.230503
v -0.615252 0.041324 1.230503
v -1.230503 0.608852 -4.306761
v -1.230503 0.265411 -3.076258
v -1.845755 0.681063 -3.691509
v -0.615252 0.130526 -3.691509
v 3.693574 0.004570 -4.309313
v 3.691509 0.004096 -3.076258
v 3.111431 0.107987 -3.734991
v 4.306761 0.000000 -3.691509
v 4.306761 0.000000 -3.076258
v 3.078322 0.004570 -3.078810
v 3.147003 0.187720 -4.394217
v -0.615252 0.026807 -3.076258
v -1.845755 0.608852 -3.076258
v -1.845755 0.878160 -4.306761
v -0.615252 0.107143 1.845755
v -1.845755 0.141901 1.845755
v -1.845755 -0.069405 0.615252
v 4.306761 0.353764 1.845755
v 3.076258 0.641088 1.845755
v 3.076258 0.043228 0.615252
v 1.845755 0.000000 1.845755
v 0.615252 0.000000 1.845755
v 0.615252 0.000000 0.615252
v 1.845755 0.725596 4.306761
v 0.615252 0.000000 4.306761
v 0.615252 0.055009 3.076258
v 4.306761 0.756804 4.306761
v 3.076258 1.337080 4.306761
v 3.076258 1.322133 3.076258
v -3.076258 0.085570 1.845755
v -4.306761 0.000000 1.845755
v -4.306761 -0.163016 0.615252
v -3.076258 0.000000 4.306761
v -4.306761 0.000000 4.306761
v -4.306761 0.000000 3.076258
v -0.615252 0.000000 4.306761
v -1.845755 0.000000 4.306761
v -1.845755 0.085570 3.076258
v -3.076258 1.287271 -3.076258
v -4.306761 1.287271 -3.076258
v -4.306761 2.005336 -4.306761
v -3.076258 0.000000 -0.615252
v -4.306761 0.026807 -0.615252
v -4.306761 0.608852 -1.845755
v -0.615252 -0.029364 -0.615252
v -1.845755 0.000000 -0.615252
v -1.845755 0.130526 -1.845755
v 1.972876 0.281386 -3.233407
v 0.617316 0.004570 -3.078810
v 0.617316 0.004570 -4.309313
v 1.845755 0.000000 -0.615252
v 0.615252 -0.003946 -0.615252
v 0.615252 -0.024289 -1.845755
v 4.306761 0.069783 -0.615252
v 3.076258 0.159487 -0.615252
v 3.076258 0.203989 -1.845755
v 4.306761 0.141528 -1.845755
v 1.847819 0.004570 -1.848307
v 1.972876 0.305645 -4.463910
v -0.615252 -0.010469 -1.845755
v -3.076258 0.322398 -1.845755
v -3.076258 2.005336 -4.306761
v -0.615252 0.131344 3.076258
v -3.076258 0.085570 3.076258
v -3.076258 -0.030815 0.615252
v 4.306761 1.278563 3.076258
v 1.845755 0.429007 3.076258
v 1.845755 0.000000 0.615252
v 4.306761 0.000000 0.615252
v -0.615252 0.000000 0.615252
v -0.615252 0.265411 -4.306761
v 4.306761 0.000000 -4.306761
vn 0.0000 1.0000 0.0000
vn 0.3860 0.9208 0.0563
vn -0.0666 0.9978 0.0038
vn -0.5004 0.6561 -0.5649
vn 0.1275 0.9886 0.0800
vn 0.1467 0.9782 0.1467
vn -0.0636 0.9715 -0.2285
vn 0.0908 0.8650 0.4935
vn 0.0026 0.9998 0.0196
vn -0.1837 0.9415 -0.2825
vn 0.0067 0.9930 0.1175
vn 0.1897 0.9812 -0.0360
vn -0.2393 0.9251 -0.2948
vn -0.0395 0.9704 0.2380
vn 0.1939 0.9769 0.0896
vn -0.0776 0.9940 0.0776
vn -0.0430 0.9984 -0.0366
vn -0.1754 0.9824 -0.0636
vn 0.0898 0.9924 -0.0836
vn 0.2783 0.9193 0.2783
vn 0.0003 1.0000 0.0003
vn 0.1124 0.9884 -0.1023
vn 0.1246 0.9505 0.2848
vn 0.0149 0.9982 0.0583
vn 0.0111 0.9987 0.0498
vn -0.0881 0.9948 0.0502
vn -0.1243 0.9863 0.1087
vn -0.0231 0.9994 -0.0242
vn 0.0991 0.9853 -0.1393
vn 0.0725 0.9972 -0.0166
vn -0.2754 0.9298 -0.2440
vn -0.0652 0.9970 -0.0408
vn 0.1236 0.9835 0.1319
vn -0.1079 0.6642 -0.7397
vn 0.2663 0.9264 -0.2663
vn -0.0666 0.9967 0.0459
vn 0.1196 0.9914 -0.0530
vn 0.4563 0.8791 0.1377
vn 0.1261 0.9885 0.0836
vn 0.2693 0.9609 -0.0640
vn 0.0872 0.9930 0.0798
vn 0.0033 1.0000 -0.0033
vn 0.0561 0.9763 -0.2091
vn 0.0811 0.9934 -0.0811
vn 0.1864 0.9767 0.1060
vn 0.1208 0.9927 -0.0042
vn -0.0580 0.9781 -0.1998
vn 0.3548 0.8973 -0.2625
vn 0.2700 0.9230 0.2743
vn 0.2420 0.9677 0.0710
vn 0.3673 0.9150 0.1667
vn 0.2848 0.9505 0.1246
vn 0.0221 0.9995 0.0214
vn 0.4233 0.8699 0.2530
vn 0.0877 0.9953 0.0420
vn -0.1617 0.9733 -0.1629
vn -0.0563 0.9978 0.0350
vn -0.1131 0.9854 0.1275
vn -0.1427 0.9780 -0.1524
vn -0.1146 0.9819 -0.1507
vn 0.2955 0.7099 -0.6393
vn 0.4476 0.7741 -0.4476
vn -0.3860 0.8112 -0.4393
vn -0.5866 0.7721 -0.2445
vn -0.1290 0.9832 0.1294
vn -0.0117 0.9994 0.0340
vn -0.0229 0.9997 0.0024
vn -0.3240 0.9186 -0.2262
vn -0.0061 0.9987 -0.0499
vn 0.0280 0.9992 -0.0280
vn -0.6602 0.7301 -0.1762
vn 0.0112 0.9996 0.0275
vn -0.0169 0.9997 -0.0169
vn -0.6301 0.7422 -0.2283
vn 0.1199 0.9790 -0.1646
vn 0.1361 0.9732 0.1854
vn 0.0360 0.9992 0.0196
vn -0.0494 0.9947 -0.0900
vn -0.1467 0.9782 -0.1467
vn 0.1467 0.9782 -0.1467
vn -0.0167 0.9995 -0.0259
vn -0.0881 0.9948 -0.0502
vn 0.1420 0.9874 0.0702
vn 0.1024 0.9878 -0.1173
vn -0.0942 0.9818 -0.1649
vn -0.0191 0.9996 0.0191
vn 0.0388 0.9943 0.0995
vn -0.0107 0.9999 0.0107
vn -0.0692 0.9952 0.0692
vn -0.1467 0.9782 0.1467
vn 0.0689 0.9877 0.1406
vn 0.0135 0.9990 0.0422
vn 0.0215 0.9968 0.0764
vn 0.0563 0.9208 0.3860
vn 0.0380 0.9907 0.1308
vn -0.0126 0.9963 0.0847
vn 0.2530 0.8699 0.4233
vn 0.0410 0.9991 0.0067
vn 0.0238 0.9994 -0.0238
vn -0.0016 0.9989 -0.0461
vn 0.0214 0.9995 0.0221
vn -0.0386 0.9975 0.0593
vn -0.0104 0.9999 0.0104
vn 0.0945 0.9888 0.1153
vn -0.1664 0.9730 -0.1602
vn -0.1390 0.9805 0.1390
vn 0.1584 0.9746 0.1584
vn -0.0034 1.0000 -0.0034
vn -0.0037 1.0000 0.0037
vn -0.1639 0.9847 0.0594
vn 0.0546 0.9984 0.0111
vn 0.0184 0.9995 0.0251
vn -0.0033 1.0000 0.0033
vn -0.1225 0.9911 0.0525
vn -0.1098 0.9834 -0.1444
vn -0.0191 0.9995 -0.0255
vn -0.0032 1.0000 -0.0032
vn 0.0089 0.9995 0.0305
vn -0.0826 0.9867 0.1399
vn -0.0595 0.9980 0.0201
vn 0.1947 0.9563 0.2183
vn 0.1133 0.9825 0.1475
vn 0.0565 0.9968 0.0565
vn -0.1588 0.9789 0.1284
vn -0.1665 0.9859 0.0195
vn 0.1193 0.9911 0.0596
vn -0.1208 0.9892 -0.0830
vn 0.2818 0.9281 -0.2432
vn 0.3522 0.9341 0.0577
vn 0.2456 0.9689 -0.0292
vn -0.0588 0.9850 0.1621
vn -0.0070 1.0000 0.0004
vn -0.1615 0.9853 -0.0563
vn -0.1995 0.9671 -0.1580
vn -0.1579 0.9757 0.1517
vn -0.1509 0.9451 0.2898
vn 0.1235 0.9870 0.1027
vn 0.0364 0.9991 0.0194
vn 0.1159 0.9849 0.1283
vn 0.0455 0.8822 0.4688
vn 0.1104 0.9121 0.3948
vn 0.1486 0.9793 -0.1374
vn 0.0993 0.9801 0.1722
vn -0.0539 0.9731 0.2240
vn -0.0502 0.9948 0.0881
vn 0.0502 0.9948 0.0881
vn -0.0024 0.9997 0.0237
vn -0.0147 0.9979 -0.0636
vn 0.1548 0.9826 -0.1029
vn -0.3127 0.8969 -0.3127
vn -0.6746 0.7095 -0.2038
vn -0.0437 0.9989 0.0192
vn 0.0721 0.9974 0.0063
vn 0.0781 0.9969 -0.0123
vn 0.0448 0.9928 -0.1115
vn 0.0335 0.9989 -0.0335
vn 0.4935 0.8650 0.0908
vn 0.0037 1.0000 -0.0037
vn 0.0037 1.0000 0.0037
vn 0.5150 0.6852 -0.5150
vn 0.4501 0.7713 0.4501
vn 0.2964 0.8681 0.3982
vn 0.0000 0.6506 0.7594
vn 0.5597 0.6111 0.5597
vn -0.1784 0.9794 -0.0944
vn -0.3480 0.8442 -0.4078
vn -0.2604 0.9483 -0.1812
vn 0.6559 0.7343 0.1748
vn -0.7649 0.6358 0.1035
vn -0.2609 0.9081 -0.3274
vn 0.5524 0.7763 0.3037
vn 0.3482 0.8703 0.3482
vn 0.6316 0.7655 0.1226
vn 0.3982 0.8681 0.2964
vn 0.2753 0.9164 -0.2906
vn 0.3140 0.9109 0.2678
vn -0.2833 0.9146 0.2885
vn 0.5682 0.6832 -0.4587
vn -0.4705 0.8043 -0.3628
vn -0.5228 0.6852 -0.5071
vn -0.0877 0.9900 0.1103
vn 0.7643 0.6351 -0.1122
vn 0.5608 0.5830 0.5878
vn 0.6420 0.7249 0.2497
vn 0.0327 0.6843 0.7284
vn -0.1247 0.6401 0.7581
vn -0.3659 0.6596 -0.6565
vn 0.0000 0.7123 0.7019
vn 0.3037 0.7763 0.5524
vn 0.1226 0.7655 0.6316
vn 0.3861 0.8378 -0.3861
vn 0.4561 0.8354 0.3068
vn 0.5179 0.6852 0.5121
vn -0.6695 0.5996 -0.4384
vn -0.1952 0.9804 0.0285
vn 0.2734 0.9583 0.0830
vn -0.0275 0.9196 -0.3918
vn -0.0531 0.9971 -0.0545
vn -0.2225 0.9672 -0.1224
vn -0.2300 0.9730 0.0220
vn 0.7594 0.6506 0.0000
usemtl Grass
s off
f 289//1 84//1 4//1 141//1
f 288//2 90//2 8//2 137//2
f 287//1 91//1 9//1 144//1
f 286//1 88//1 7//1 145//1
f 285//3 106//3 21//3 133//3
f 284//4 107//4 22//4 148//4
f 282//5 110//5 20//5 132//5
f 281//6 111//6 23//6 152//6
f 280//7 103//7 19//7 153//7
f 278//8 115//8 24//8 156//8
f 277//9 102//9 18//9 157//9
f 276//10 118//10 17//10 129//10
f 275//11 119//11 25//11 160//11
f 274//12 96//12 12//12 161//12
f 273//13 162//13 65//13 121//13
f 272//14 163//14 66//14 164//14
f 271//15 136//15 40//15 165//15
f 270//16 166//16 64//16 120//16
f 269//17 167//17 67//17 168//17
f 267//18 170//18 33//18 89//18
f 266//18 171//18 68//18 172//18
f 265//19 158//19 62//19 173//19
f 264//20 174//20 61//20 117//20
f 263//21 175//21 69//21 176//21
f 262//22 142//22 46//22 177//22
f 260//23 179//23 70//23 180//23
f 259//24 155//24 59//24 181//24
f 253//25 143//25 47//25 189//25
f 252//26 190//26 56//26 112//26
f 251//1 191//1 73//1 192//1
f 250//1 151//1 55//1 193//1
f 249//27 194//27 36//27 92//27
f 248//28 195//28 74//28 196//28
f 247//29 150//29 54//29 197//29
f 243//30 202//30 52//30 108//30
f 242//31 203//31 76//31 204//31
f 240//1 206//1 37//1 93//1
f 239//1 207//1 77//1 208//1
f 238//32 146//32 50//32 209//32
f 237//33 210//33 49//33 105//33
f 236//34 211//34 78//34 212//34
f 235//35 128//35 32//35 213//35
f 234//36 214//36 48//36 104//36
f 232//37 131//37 35//37 217//37
f 230//38 219//38 80//38 220//38
f 229//39 130//39 34//39 221//39
f 228//40 222//40 45//40 101//40
f 227//41 223//41 81//41 224//41
f 226//1 124//1 28//1 225//1
f 223//42 226//42 225//42 81//42
f 65//43 161//43 226//43 223//43
f 161//44 12//44 124//44 226//44
f 158//45 227//45 224//45 62//45
f 25//46 121//46 227//46 158//46
f 121//47 65//47 223//47 227//47
f 118//48 228//48 101//48 17//48
f 62//49 224//49 228//49 118//49
f 224//50 81//50 222//50 228//50
f 219//51 229//51 221//51 80//51
f 61//52 157//52 229//52 219//52
f 157//53 18//53 130//53 229//53
f 117//54 61//54 219//54 230//54
f 153//55 19//55 131//55 232//55
f 150//56 233//56 216//56 54//56
f 23//57 113//57 233//57 150//57
f 110//58 234//58 104//58 20//58
f 54//59 216//59 234//59 110//59
f 216//60 79//60 214//60 234//60
f 211//61 235//61 213//61 78//61
f 149//62 16//62 128//62 235//62
f 146//63 236//63 212//63 50//63
f 22//64 109//64 236//64 146//64
f 106//65 237//65 105//65 21//65
f 50//66 212//66 237//66 106//66
f 212//67 78//67 210//67 237//67
f 207//1 238//1 209//1 77//1
f 52//1 148//1 238//1 207//1
f 148//68 22//68 146//68 238//68
f 131//1 239//1 208//1 35//1
f 19//69 108//69 239//69 131//69
f 108//70 52//70 207//70 239//70
f 91//1 240//1 93//1 9//1
f 35//1 208//1 240//1 91//1
f 208//1 77//1 206//1 240//1
f 203//71 241//71 205//71 76//71
f 143//72 242//72 204//72 47//72
f 6//73 135//73 242//73 143//73
f 135//74 39//74 203//74 242//74
f 103//75 243//75 108//75 19//75
f 47//76 204//76 243//76 103//76
f 204//77 76//77 202//77 243//77
f 195//78 247//78 197//78 74//78
f 56//79 152//79 247//79 195//79
f 152//80 23//80 150//80 247//80
f 94//81 248//81 196//81 38//81
f 10//1 112//1 248//1 94//1
f 112//82 56//82 195//82 248//82
f 134//83 249//83 92//83 5//83
f 38//84 196//84 249//84 134//84
f 196//85 74//85 194//85 249//85
f 191//1 250//1 193//1 73//1
f 43//1 99//1 250//1 191//1
f 99//1 15//1 151//1 250//1
f 82//1 251//1 192//1 26//1
f 1//1 139//1 251//1 82//1
f 139//1 43//1 191//1 251//1
f 122//1 252//1 112//1 10//1
f 26//1 192//1 252//1 122//1
f 192//86 73//86 190//86 252//86
f 187//87 253//87 189//87 72//87
f 31//1 87//1 253//1 187//1
f 87//1 6//1 143//1 253//1
f 127//1 31//1 187//1 254//1
f 111//88 255//88 113//88 23//88
f 55//89 188//89 255//89 111//89
f 188//90 72//90 186//90 255//90
f 179//91 259//91 181//91 70//91
f 36//92 132//92 259//92 179//92
f 132//93 20//93 155//93 259//93
f 86//94 260//94 180//94 30//94
f 5//95 92//95 260//95 86//95
f 92//96 36//96 179//96 260//96
f 30//8 180//8 261//8 126//8
f 180//97 70//97 178//97 261//97
f 175//98 262//98 177//98 69//98
f 48//99 144//99 262//99 175//99
f 144//100 9//100 142//100 262//100
f 155//101 263//101 176//101 59//101
f 20//102 104//102 263//102 155//102
f 104//103 48//103 175//103 263//103
f 115//97 264//97 117//97 24//97
f 59//23 176//23 264//23 115//23
f 176//104 69//104 174//104 264//104
f 171//105 265//105 173//105 68//105
f 64//106 160//106 265//106 171//106
f 160//107 25//107 158//107 265//107
f 130//108 266//108 172//108 34//108
f 18//109 120//109 266//109 130//109
f 120//110 64//110 171//110 266//110
f 90//111 267//111 89//111 8//111
f 34//112 172//112 267//112 90//112
f 172//110 68//110 170//110 267//110
f 167//113 268//113 169//113 67//113
f 37//1 133//1 268//1 167//1
f 133//114 21//114 159//114 268//114
f 142//115 269//115 168//115 46//115
f 9//116 93//116 269//116 142//116
f 93//117 37//117 167//117 269//117
f 102//118 270//118 120//118 18//118
f 46//119 168//119 270//119 102//119
f 168//120 67//120 166//120 270//120
f 163//121 271//121 165//121 66//121
f 49//122 145//122 271//122 163//122
f 145//123 7//123 136//123 271//123
f 159//124 272//124 164//124 63//124
f 21//125 105//125 272//125 159//125
f 105//126 49//126 163//126 272//126
f 119//127 273//127 121//127 25//127
f 162//128 274//128 161//128 65//128
f 66//129 165//129 274//129 162//129
f 165//130 40//130 96//130 274//130
f 166//131 275//131 160//131 64//131
f 67//132 169//132 275//132 166//132
f 169//133 63//133 119//133 275//133
f 170//134 276//134 129//134 33//134
f 68//135 173//135 276//135 170//135
f 173//136 62//136 118//136 276//136
f 174//137 277//137 157//137 61//137
f 69//138 177//138 277//138 174//138
f 177//139 46//139 102//139 277//139
f 178//140 278//140 156//140 60//140
f 70//141 181//141 278//141 178//141
f 181//94 59//94 115//94 278//94
f 186//142 280//142 153//142 57//142
f 72//143 189//143 280//143 186//143
f 189//144 47//144 103//144 280//144
f 190//90 281//90 152//90 56//90
f 73//145 193//145 281//145 190//145
f 193//146 55//146 111//146 281//146
f 194//147 282//147 132//147 36//147
f 74//148 197//148 282//148 194//148
f 197//149 54//149 110//149 282//149
f 202//150 284//150 148//150 52//150
f 76//151 205//151 284//151 202//151
f 206//1 285//1 133//1 37//1
f 77//1 209//1 285//1 206//1
f 209//152 50//152 106//152 285//152
f 210//153 286//153 145//153 49//153
f 78//154 213//154 286//154 210//154
f 213//1 32//1 88//1 286//1
f 214//1 287//1 144//1 48//1
f 79//155 217//155 287//155 214//155
f 217//156 35//156 91//156 287//156
f 218//157 288//157 137//157 41//157
f 80//54 221//54 288//54 218//54
f 221//52 34//52 90//52 288//52
f 222//158 289//158 141//158 45//158
f 81//159 225//159 289//159 222//159
f 225//1 28//1 84//1 289//1
usemtl Rock
f 283//160 100//160 16//160 149//160
f 279//161 114//161 13//161 125//161
f 261//162 178//162 60//162 116//162
f 257//163 183//163 71//163 184//163
f 256//164 154//164 58//164 185//164
f 255//165 186//165 57//165 113//165
f 246//166 198//166 53//166 109//166
f 245//167 199//167 75//167 200//167
f 244//168 140//168 44//168 201//168
f 241//169 147//169 51//169 205//169
f 233//170 215//170 79//170 216//170
f 231//171 218//171 41//171 97//171
f 154//171 230//171 220//171 58//171
f 24//172 117//172 230//172 154//172
f 114//164 231//164 97//164 13//164
f 58//173 220//173 231//173 114//173
f 220//174 80//174 218//174 231//174
f 215//175 232//175 217//175 79//175
f 57//176 153//176 232//176 215//176
f 113//177 57//177 215//177 233//177
f 53//178 149//178 235//178 211//178
f 109//179 53//179 211//179 236//179
f 39//180 95//180 241//180 203//180
f 95//181 11//181 147//181 241//181
f 199//182 244//182 201//182 75//182
f 27//183 83//183 244//183 199//183
f 83//184 2//184 140//184 244//184
f 11//185 123//185 245//185 147//185
f 123//186 27//186 199//186 245//186
f 107//187 246//187 109//187 22//187
f 183//163 256//163 185//163 71//163
f 60//188 156//188 256//188 183//188
f 156//189 24//189 154//189 256//189
f 14//164 116//164 257//164 98//164
f 116//190 60//190 183//190 257//190
f 126//189 261//189 116//189 14//189
f 198//191 283//191 149//191 53//191
f 75//192 201//192 283//192 198//192
f 201//193 44//193 100//193 283//193
f 205//194 51//194 107//194 284//194
usemtl Dirt
f 268//195 159//195 63//195 169//195
f 258//1 182//1 29//1 85//1
f 254//145 187//145 72//145 188//145
f 147//196 245//196 200//196 51//196
f 51//197 200//197 246//197 107//197
f 200//198 75//198 198//198 246//198
f 151//86 254//86 188//86 55//86
f 15//1 127//1 254//1 151//1
f 98//161 257//161 184//161 42//161
f 138//1 258//1 85//1 3//1
f 42//1 184//1 258//1 138//1
f 184//1 71//1 182//1 258//1
f 63//199 164//199 273//199 119//199
f 164//200 66//200 162//200 273//200
f 182//1 279//1 125//1 29//1
f 71//1 185//1 279//1 182//1
f 185//201 58//201 114//201 279//201
